[
  {
    "salesOrg":"SA20",
    "distributionChannel":"DO",
    "division":"RI",
    "lv1":"F1130",
    "lv1Text":"CALDAIE A BIOMASSA",
    "lv2":"G114D",
    "lv2Text":"HYDRO STOVE",
    "materialCode":"20101106",
    "materialDescription":"TERMOSTUFA  ATMOSFERA 11",
    "kit":"X",
    "component":"",
    "componentDescription":"",
    "quantity":"",
    "image":"F1130G114D",
    "price":"",
    "currency":""
  },
  {
    "salesOrg":"SA20",
    "distributionChannel":"DO",
    "division":"RI",
    "lv1":"F1130",
    "lv1Text":"CALDAIE A BIOMASSA",
    "lv2":"G114D",
    "lv2Text":"HYDRO STOVE",
    "materialCode":"20101106",
    "materialDescription":"",
    "kit":"C",
    "component":"20101093",
    "componentDescription":"TERMOSTUFA ATMOSFERA 11",
    "quantity":"1",
    "image":"F1130G114D",
    "price":"",
    "currency":""
  },
  {
    "salesOrg":"SA20",
    "distributionChannel":"DO",
    "division":"RI",
    "lv1":"F1130",
    "lv1Text":"CALDAIE A BIOMASSA",
    "lv2":"G114D",
    "lv2Text":"HYDRO STOVE",
    "materialCode":"20101106",
    "materialDescription":"",
    "kit":"C",
    "component":"20101103",
    "componentDescription":"ACC. PANNELLATURA ATMOSFERA 11 B",
    "quantity":"1",
    "image":"F1130G114D",
    "price":"",
    "currency":""
  },
  {
    "salesOrg":"SA20",
    "distributionChannel":"DO",
    "division":"RI",
    "lv1":"F1210",
    "lv1Text":"MURALI COND",
    "lv2":"G1215",
    "lv2Text":"RESIDENCE CONDENS",
    "materialCode":"20020052",
    "materialDescription":"RESIDENCE CONDENS 20 KIS MTN",
    "kit":"",
    "component":"",
    "componentDescription":"",
    "quantity":"",
    "image":"F1210G1215",
    "price":"2487",
    "currency":"EUR"
  },
  {
    "salesOrg":"SA20",
    "distributionChannel":"DO",
    "division":"RI",
    "lv1":"F1210",
    "lv1Text":"MURALI COND",
    "lv2":"G1215",
    "lv2Text":"RESIDENCE CONDENS",
    "materialCode":"20020056",
    "materialDescription":"RESIDENCE CONDENS 20 IS MTN",
    "kit":"",
    "component":"",
    "componentDescription":"",
    "quantity":"",
    "image":"F1210G1215",
    "price":"2944",
    "currency":"EUR"
  },
  {
    "salesOrg":"SA20",
    "distributionChannel":"DO",
    "division":"RI",
    "lv1":"F1210",
    "lv1Text":"MURALI COND",
    "lv2":"G1215",
    "lv2Text":"RESIDENCE CONDENS",
    "materialCode":"20020060",
    "materialDescription":"RESIDENCE CONDENS 12 IS",
    "kit":"",
    "component":"",
    "componentDescription":"",
    "quantity":"",
    "image":"F1210G1215",
    "price":"3015",
    "currency":"EUR"
  },
  {
    "salesOrg":"SA20",
    "distributionChannel":"DO",
    "division":"RI",
    "lv1":"F1210",
    "lv1Text":"MURALI COND",
    "lv2":"G1215",
    "lv2Text":"RESIDENCE CONDENS",
    "materialCode":"20019735",
    "materialDescription":"RESIDENCE CONDENS 30 IS",
    "kit":"",
    "component":"",
    "componentDescription":"",
    "quantity":"",
    "image":"F1210G1215",
    "price":"3108",
    "currency":"EUR"
  },
  {
    "salesOrg":"SA20",
    "distributionChannel":"DO",
    "division":"RI",
    "lv1":"F1210",
    "lv1Text":"MURALI COND",
    "lv2":"G1215",
    "lv2Text":"RESIDENCE CONDENS",
    "materialCode":"20019716",
    "materialDescription":"RESIDENCE CONDENS 25 KIS",
    "kit":"",
    "component":"",
    "componentDescription":"",
    "quantity":"",
    "image":"F1210G1215",
    "price":"3108",
    "currency":"EUR"
  },
  {
    "salesOrg":"SA20",
    "distributionChannel":"DO",
    "division":"RI",
    "lv1":"F1210",
    "lv1Text":"MURALI COND",
    "lv2":"G1215",
    "lv2Text":"RESIDENCE CONDENS",
    "materialCode":"20019729",
    "materialDescription":"RESIDENCE CONDENS 30 KIS",
    "kit":"",
    "component":"",
    "componentDescription":"",
    "quantity":"",
    "image":"F1210G1215",
    "price":"2845",
    "currency":"EUR"
  },
  {
    "salesOrg":"SA20",
    "distributionChannel":"DO",
    "division":"RI",
    "lv1":"F1210",
    "lv1Text":"MURALI COND",
    "lv2":"G1215",
    "lv2Text":"RESIDENCE CONDENS",
    "materialCode":"20096580",
    "materialDescription":"RESIDENCE CONDENS 20 KIS",
    "kit":"",
    "component":"",
    "componentDescription":"",
    "quantity":"",
    "image":"F1210G1215",
    "price":"2450",
    "currency":"EUR"
  },
  {
    "salesOrg":"SA20",
    "distributionChannel":"DO",
    "division":"RI",
    "lv1":"F1210",
    "lv1Text":"MURALI COND",
    "lv2":"G1215",
    "lv2Text":"RESIDENCE CONDENS",
    "materialCode":"20096586",
    "materialDescription":"RESIDENCE CONDENS 25 KIS",
    "kit":"",
    "component":"",
    "componentDescription":"",
    "quantity":"",
    "image":"F1210G1215",
    "price":"1345",
    "currency":"EUR"
  },
  {
    "salesOrg":"SA20",
    "distributionChannel":"DO",
    "division":"RI",
    "lv1":"F1210",
    "lv1Text":"MURALI COND",
    "lv2":"G1238",
    "lv2Text":"COROLLA DOM",
    "materialCode":"20108141",
    "materialDescription":"CALDAIA COROLLA 35 S ERP MTN",
    "kit":"",
    "component":"",
    "componentDescription":"",
    "quantity":"",
    "image":"F1210G1238",
    "price":"866",
    "currency":"EUR"
  },
  {
    "salesOrg":"SA20",
    "distributionChannel":"DO",
    "division":"RI",
    "lv1":"F1210",
    "lv1Text":"MURALI COND",
    "lv2":"G1238",
    "lv2Text":"COROLLA DOM",
    "materialCode":"20108143",
    "materialDescription":"CALDAIA COROLLA 35 S ERP GPL",
    "kit":"",
    "component":"",
    "componentDescription":"",
    "quantity":"",
    "image":"F1210G1238",
    "price":"933",
    "currency":"EUR"
  },
  {
    "salesOrg":"SA20",
    "distributionChannel":"DO",
    "division":"RI",
    "lv1":"F1210",
    "lv1Text":"MURALI COND",
    "lv2":"G1238",
    "lv2Text":"COROLLA DOM",
    "materialCode":"20108144",
    "materialDescription":"CALDAIA COROLLA 35 X ERP MTN",
    "kit":"",
    "component":"",
    "componentDescription":"",
    "quantity":"",
    "image":"F1210G1238",
    "price":"894",
    "currency":"EUR"
  },
  {
    "salesOrg":"SA20",
    "distributionChannel":"DO",
    "division":"RI",
    "lv1":"F1210",
    "lv1Text":"MURALI COND",
    "lv2":"G1238",
    "lv2Text":"COROLLA DOM",
    "materialCode":"20108145",
    "materialDescription":"CALDAIA COROLLA 35 X ERP GPL",
    "kit":"",
    "component":"",
    "componentDescription":"",
    "quantity":"",
    "image":"F1210G1238",
    "price":"992",
    "currency":"EUR"
  },
  {
    "salesOrg":"SA20",
    "distributionChannel":"DO",
    "division":"RI",
    "lv1":"F1440",
    "lv1Text":"TERMOCONVETTORI",
    "lv2":"G1440",
    "lv2Text":"TCV",
    "materialCode":"4153200",
    "materialDescription":"NUOVO TCV 18",
    "kit":"",
    "component":"",
    "componentDescription":"",
    "quantity":"",
    "image":"F1440G1440",
    "price":"751",
    "currency":"EUR"
  },
  {
    "salesOrg":"SA20",
    "distributionChannel":"DO",
    "division":"RI",
    "lv1":"F1440",
    "lv1Text":"TERMOCONVETTORI",
    "lv2":"G1440",
    "lv2Text":"TCV",
    "materialCode":"4153202",
    "materialDescription":"NUOVO TCV 18 VI",
    "kit":"",
    "component":"",
    "componentDescription":"",
    "quantity":"",
    "image":"F1440G1440",
    "price":"915",
    "currency":"EUR"
  },
  {
    "salesOrg":"SA20",
    "distributionChannel":"DO",
    "division":"RI",
    "lv1":"F1440",
    "lv1Text":"TERMOCONVETTORI",
    "lv2":"G1440",
    "lv2Text":"TCV",
    "materialCode":"4153206",
    "materialDescription":"NUOVO TCV 30 VI",
    "kit":"",
    "component":"",
    "componentDescription":"",
    "quantity":"",
    "image":"F1440G1440",
    "price":"1060",
    "currency":"EUR"
  },
  {
    "salesOrg":"SA20",
    "distributionChannel":"DO",
    "division":"RI",
    "lv1":"F1440",
    "lv1Text":"TERMOCONVETTORI",
    "lv2":"G1440",
    "lv2Text":"TCV",
    "materialCode":"4153210",
    "materialDescription":"NUOVO TCV 45 VI",
    "kit":"",
    "component":"",
    "componentDescription":"",
    "quantity":"",
    "image":"F1440G1440",
    "price":"1025",
    "currency":"EUR"
  },
  {
    "salesOrg":"SA20",
    "distributionChannel":"DO",
    "division":"RI",
    "lv1":"F1440",
    "lv1Text":"TERMOCONVETTORI",
    "lv2":"G1440",
    "lv2Text":"TCV",
    "materialCode":"4153212",
    "materialDescription":"NUOVO TCV 25 VIS",
    "kit":"",
    "component":"",
    "componentDescription":"",
    "quantity":"",
    "image":"F1440G1440",
    "price":"1146",
    "currency":"EUR"
  },
  {
    "salesOrg":"SA20",
    "distributionChannel":"DO",
    "division":"RI",
    "lv1":"F1440",
    "lv1Text":"TERMOCONVETTORI",
    "lv2":"G1440",
    "lv2Text":"TCV",
    "materialCode":"4153214",
    "materialDescription":"NUOVO TCV 45 VIS",
    "kit":"",
    "component":"",
    "componentDescription":"",
    "quantity":"",
    "image":"F1440G1440",
    "price":"1056",
    "currency":"EUR"
  },
  {
    "salesOrg":"SA20",
    "distributionChannel":"DO",
    "division":"RI",
    "lv1":"F1100",
    "lv1Text":"BRUCIATORI MEDIA POTENZA",
    "lv2":"G1100",
    "lv2Text":"MACISTE",
    "materialCode":"20096908",
    "materialDescription":"BRUCIATORE RL32 BLU ST FS1 1/230/50 1/2.",
    "kit":"",
    "component":"",
    "componentDescription":"",
    "quantity":"",
    "image":"F1100G1100",
    "price":"1600",
    "currency":"EUR"
  },
  {
    "salesOrg":"SA20",
    "distributionChannel":"DO",
    "division":"RI",
    "lv1":"F1100",
    "lv1Text":"BRUCIATORI MEDIA POTENZA",
    "lv2":"G1100",
    "lv2Text":"MACISTE",
    "materialCode":"20096920",
    "materialDescription":"BRUCIATORE RL22 BLU TC ST FS1 1/230/50.",
    "kit":"",
    "component":"",
    "componentDescription":"",
    "quantity":"",
    "image":"F1100G1100",
    "price":"2973",
    "currency":"EUR"
  },
  {
    "salesOrg":"SA20",
    "distributionChannel":"DO",
    "division":"RI",
    "lv1":"F1100",
    "lv1Text":"BRUCIATORI MEDIA POTENZA",
    "lv2":"G1100",
    "lv2Text":"MACISTE",
    "materialCode":"20096921",
    "materialDescription":"BRUCIATORE RL22 BLU TC ST FS1 1/230 964.",
    "kit":"",
    "component":"",
    "componentDescription":"",
    "quantity":"",
    "image":"F1100G1100",
    "price":"2730",
    "currency":"EUR"
  },
  {
    "salesOrg":"SA20",
    "distributionChannel":"DO",
    "division":"RI",
    "lv1":"F1100",
    "lv1Text":"BRUCIATORI MEDIA POTENZA",
    "lv2":"G1100",
    "lv2Text":"MACISTE",
    "materialCode":"20096938",
    "materialDescription":"BRUCIATORE RL 32 BLU TC ST FS1 1/230/50.",
    "kit":"",
    "component":"",
    "componentDescription":"",
    "quantity":"",
    "image":"F1100G1100",
    "price":"4606",
    "currency":"EUR"
  },
  {
    "salesOrg":"SA20",
    "distributionChannel":"DO",
    "division":"RI",
    "lv1":"F1100",
    "lv1Text":"BRUCIATORI MEDIA POTENZA",
    "lv2":"G1100",
    "lv2Text":"MACISTE",
    "materialCode":"20096939",
    "materialDescription":"BRUCIATORE RL32 BLU TC ST FS1 1/230/50.",
    "kit":"",
    "component":"",
    "componentDescription":"",
    "quantity":"",
    "image":"F1100G1100",
    "price":"5138",
    "currency":"EUR"
  },
  {
    "salesOrg":"SA20",
    "distributionChannel":"DO",
    "division":"RI",
    "lv1":"F1100",
    "lv1Text":"BRUCIATORI MEDIA POTENZA",
    "lv2":"G1100",
    "lv2Text":"MACISTE",
    "materialCode":"20097759",
    "materialDescription":"BRUCIATORE RS 50/M  MZ TC  FS1",
    "kit":"",
    "component":"",
    "componentDescription":"",
    "quantity":"",
    "image":"F1100G1100",
    "price":"3134",
    "currency":"EUR"
  },
  {
    "salesOrg":"SA20",
    "distributionChannel":"DO",
    "division":"RI",
    "lv1":"F1100",
    "lv1Text":"BRUCIATORI MEDIA POTENZA",
    "lv2":"G1100",
    "lv2Text":"MACISTE",
    "materialCode":"20099514",
    "materialDescription":"BRUCIATORE RL 28/E TC FS1 1/120/60 NS .",
    "kit":"",
    "component":"",
    "componentDescription":"",
    "quantity":"",
    "image":"F1100G1100",
    "price":"4982",
    "currency":"EUR"
  },
  {
    "salesOrg":"SA20",
    "distributionChannel":"DO",
    "division":"RI",
    "lv1":"F1100",
    "lv1Text":"BRUCIATORI MEDIA POTENZA",
    "lv2":"G1100",
    "lv2Text":"MACISTE",
    "materialCode":"20100849",
    "materialDescription":"BRUCIATORE RL 28/E 120/1/60 LMV37 NS .",
    "kit":"",
    "component":"",
    "componentDescription":"",
    "quantity":"",
    "image":"F1100G1100",
    "price":"3422",
    "currency":"EUR"
  },
  {
    "salesOrg":"SA20",
    "distributionChannel":"DO",
    "division":"RI",
    "lv1":"F1100",
    "lv1Text":"BRUCIATORI MEDIA POTENZA",
    "lv2":"G1100",
    "lv2Text":"MACISTE",
    "materialCode":"20101192",
    "materialDescription":"BRUCIATORE OEM RS 50/M HURST 4VT 50 .",
    "kit":"",
    "component":"",
    "componentDescription":"",
    "quantity":"",
    "image":"F1100G1100",
    "price":"2329",
    "currency":"EUR"
  },
  {
    "salesOrg":"SA20",
    "distributionChannel":"DO",
    "division":"RI",
    "lv1":"F1100",
    "lv1Text":"BRUCIATORI MEDIA POTENZA",
    "lv2":"G1100",
    "lv2Text":"MACISTE",
    "materialCode":"20102448",
    "materialDescription":"BRUCIATORE RS50/EV TL 3/400/50 1/230/50.",
    "kit":"",
    "component":"",
    "componentDescription":"",
    "quantity":"",
    "image":"F1100G1100",
    "price":"2432",
    "currency":"EUR"
  },
  {
    "salesOrg":"SA20",
    "distributionChannel":"DO",
    "division":"RI",
    "lv1":"F1100",
    "lv1Text":"BRUCIATORI MEDIA POTENZA",
    "lv2":"G1100",
    "lv2Text":"MACISTE",
    "materialCode":"20104358",
    "materialDescription":"BRUCIATORE RL 28 TC  FS1  1/230/50  1/23",
    "kit":"",
    "component":"",
    "componentDescription":"",
    "quantity":"",
    "image":"F1100G1100",
    "price":"1985",
    "currency":"EUR"
  },
  {
    "salesOrg":"SA20",
    "distributionChannel":"DO",
    "division":"RI",
    "lv1":"F1100",
    "lv1Text":"BRUCIATORI MEDIA POTENZA",
    "lv2":"G1100",
    "lv2Text":"MACISTE",
    "materialCode":"20104515",
    "materialDescription":"BRUCIATORE RS 38/E 120/1/60 LMV37 .",
    "kit":"",
    "component":"",
    "componentDescription":"",
    "quantity":"",
    "image":"F1100G1100",
    "price":"2110",
    "currency":"EUR"
  },
  {
    "salesOrg":"SA20",
    "distributionChannel":"DO",
    "division":"RI",
    "lv1":"F1100",
    "lv1Text":"BRUCIATORI MEDIA POTENZA",
    "lv2":"G1100",
    "lv2Text":"MACISTE",
    "materialCode":"20105015",
    "materialDescription":"BRUCIATORE RS 38/E TC 1/120/60 NS .",
    "kit":"",
    "component":"",
    "componentDescription":"",
    "quantity":"",
    "image":"F1100G1100",
    "price":"2973",
    "currency":"EUR"
  },
  {
    "salesOrg":"SA20",
    "distributionChannel":"DO",
    "division":"RI",
    "lv1":"F1100",
    "lv1Text":"BRUCIATORI MEDIA POTENZA",
    "lv2":"G1100",
    "lv2Text":"MACISTE",
    "materialCode":"20106379",
    "materialDescription":"BRUCIATORE RS 28/M TL  FS1 1/230/50 AVVI",
    "kit":"",
    "component":"",
    "componentDescription":"",
    "quantity":"",
    "image":"F1100G1100",
    "price":"2730",
    "currency":"EUR"
  },
  {
    "salesOrg":"SA20",
    "distributionChannel":"DO",
    "division":"RI",
    "lv1":"F1100",
    "lv1Text":"BRUCIATORI MEDIA POTENZA",
    "lv2":"G1100",
    "lv2Text":"MACISTE",
    "materialCode":"20107024",
    "materialDescription":"BRUCIATORE RLS 38/M TXL FS1 1/230/50 .",
    "kit":"",
    "component":"",
    "componentDescription":"",
    "quantity":"",
    "image":"F1100G1100",
    "price":"4606",
    "currency":"EUR"
  },
  {
    "salesOrg":"SA20",
    "distributionChannel":"DO",
    "division":"RI",
    "lv1":"F1100",
    "lv1Text":"BRUCIATORI MEDIA POTENZA",
    "lv2":"G1100",
    "lv2Text":"MACISTE",
    "materialCode":"20108619",
    "materialDescription":"BRUCIATORE RLS 50/E TC 1/120/60 NS .",
    "kit":"",
    "component":"",
    "componentDescription":"",
    "quantity":"",
    "image":"F1100G1100",
    "price":"5138",
    "currency":"EUR"
  },
  {
    "salesOrg":"SA20",
    "distributionChannel":"DO",
    "division":"RI",
    "lv1":"F1100",
    "lv1Text":"BRUCIATORI MEDIA POTENZA",
    "lv2":"G1100",
    "lv2Text":"MACISTE",
    "materialCode":"20108623",
    "materialDescription":"BRUCIATORE RS 38/E TC 3/208-220/60 NS",
    "kit":"",
    "component":"",
    "componentDescription":"",
    "quantity":"",
    "image":"F1100G1100",
    "price":"3134",
    "currency":"EUR"
  },
  {
    "salesOrg":"SA20",
    "distributionChannel":"DO",
    "division":"RI",
    "lv1":"F1100",
    "lv1Text":"BRUCIATORI MEDIA POTENZA",
    "lv2":"G1100",
    "lv2Text":"MACISTE",
    "materialCode":"20109673",
    "materialDescription":"BRUCIATORE RLS 38/E TC 1/120/60 NS .",
    "kit":"",
    "component":"",
    "componentDescription":"",
    "quantity":"",
    "image":"F1100G1100",
    "price":"4982",
    "currency":"EUR"
  },
  {
    "salesOrg":"SA20",
    "distributionChannel":"DO",
    "division":"RI",
    "lv1":"F1100",
    "lv1Text":"BRUCIATORI MEDIA POTENZA",
    "lv2":"G1100",
    "lv2Text":"MACISTE",
    "materialCode":"20110085",
    "materialDescription":"BRUCIATORE RLS 38/E LMV-36 120/1/60 (GAS",
    "kit":"",
    "component":"",
    "componentDescription":"",
    "quantity":"",
    "image":"F1100G1100",
    "price":"3422",
    "currency":"EUR"
  },
  {
    "salesOrg":"SA20",
    "distributionChannel":"DO",
    "division":"RI",
    "lv1":"F1100",
    "lv1Text":"BRUCIATORI MEDIA POTENZA",
    "lv2":"G1100",
    "lv2Text":"MACISTE",
    "materialCode":"20110472",
    "materialDescription":"BRUCIATORE RLS 38/E NS LMV36 120/1/60",
    "kit":"",
    "component":"",
    "componentDescription":"",
    "quantity":"",
    "image":"F1100G1100",
    "price":"2329",
    "currency":"EUR"
  },
  {
    "salesOrg":"SA20",
    "distributionChannel":"DO",
    "division":"RI",
    "lv1":"F1100",
    "lv1Text":"BRUCIATORI MEDIA POTENZA",
    "lv2":"G1100",
    "lv2Text":"MACISTE",
    "materialCode":"20111445",
    "materialDescription":"BRUCIATORE RS50/E TC 3/208-230/60 NS (L.",
    "kit":"",
    "component":"",
    "componentDescription":"",
    "quantity":"",
    "image":"F1100G1100",
    "price":"2432",
    "currency":"EUR"
  },
  {
    "salesOrg":"SA20",
    "distributionChannel":"DO",
    "division":"RI",
    "lv1":"F1100",
    "lv1Text":"BRUCIATORI MEDIA POTENZA",
    "lv2":"G1100",
    "lv2Text":"MACISTE",
    "materialCode":"20112980",
    "materialDescription":"BRUCIATORE RS 50/M TL FS2  3/400/50 1/2.",
    "kit":"",
    "component":"",
    "componentDescription":"",
    "quantity":"",
    "image":"F1100G1100",
    "price":"3422",
    "currency":"EUR"
  },
  {
    "salesOrg":"SA20",
    "distributionChannel":"DO",
    "division":"RI",
    "lv1":"F1100",
    "lv1Text":"BRUCIATORI MEDIA POTENZA",
    "lv2":"G1100",
    "lv2Text":"MACISTE",
    "materialCode":"20113878",
    "materialDescription":"BRUCIATORE RL 28/M TC FS1 1/230/50 VENT.",
    "kit":"",
    "component":"",
    "componentDescription":"",
    "quantity":"",
    "image":"F1100G1100",
    "price":"2329",
    "currency":"EUR"
  },
  {
    "salesOrg":"SA20",
    "distributionChannel":"DO",
    "division":"RI",
    "lv1":"F1100",
    "lv1Text":"BRUCIATORI MEDIA POTENZA",
    "lv2":"G1100",
    "lv2Text":"MACISTE",
    "materialCode":"20044290",
    "materialDescription":"POMPA CALORE EKO T 0122 HC",
    "kit":"",
    "component":"",
    "componentDescription":"",
    "quantity":"",
    "image":"F1270G1284",
    "price":"2432",
    "currency":"EUR"
  },
  {
    "salesOrg":"SA20",
    "distributionChannel":"DO",
    "division":"RI",
    "lv1":"F1100",
    "lv1Text":"BRUCIATORI MEDIA POTENZA",
    "lv2":"G1100",
    "lv2Text":"MACISTE",
    "materialCode":"20044292",
    "materialDescription":"POMPA CALORE EKO T 0152 HC",
    "kit":"",
    "component":"",
    "componentDescription":"",
    "quantity":"",
    "image":"F1270G1284",
    "price":"1985",
    "currency":"EUR"
  },
  {
    "salesOrg":"SA20",
    "distributionChannel":"DO",
    "division":"RI",
    "lv1":"F1100",
    "lv1Text":"BRUCIATORI MEDIA POTENZA",
    "lv2":"G1100",
    "lv2Text":"MACISTE",
    "materialCode":"20044293",
    "materialDescription":"POMPA CALORE EKO T 0202 HC",
    "kit":"",
    "component":"",
    "componentDescription":"",
    "quantity":"",
    "image":"F1270G1284",
    "price":"2110",
    "currency":"EUR"
  },
  {
    "salesOrg":"SA20",
    "distributionChannel":"DO",
    "division":"RI",
    "lv1":"F1100",
    "lv1Text":"BRUCIATORI MEDIA POTENZA",
    "lv2":"G1100",
    "lv2Text":"MACISTE",
    "materialCode":"20044295",
    "materialDescription":"POMPA CALORE EKO T 0262 HC",
    "kit":"",
    "component":"",
    "componentDescription":"",
    "quantity":"",
    "image":"F1270G1284",
    "price":"2973",
    "currency":"EUR"
  },
  {
    "salesOrg":"SA20",
    "distributionChannel":"DO",
    "division":"RI",
    "lv1":"F1100",
    "lv1Text":"BRUCIATORI MEDIA POTENZA",
    "lv2":"G1100",
    "lv2Text":"MACISTE",
    "materialCode":"20044296",
    "materialDescription":"POMPA CALORE EKO T 0302 HC",
    "kit":"",
    "component":"",
    "componentDescription":"",
    "quantity":"",
    "image":"F1270G1284",
    "price":"2730",
    "currency":"EUR"
  },
  {
    "salesOrg":"SA20",
    "distributionChannel":"DO",
    "division":"RI",
    "lv1":"F1100",
    "lv1Text":"BRUCIATORI MEDIA POTENZA",
    "lv2":"G1100",
    "lv2Text":"MACISTE",
    "materialCode":"20044297",
    "materialDescription":"POMPA CALORE EKO T 0122 HCR",
    "kit":"",
    "component":"",
    "componentDescription":"",
    "quantity":"",
    "image":"F1270G1284",
    "price":"4606",
    "currency":"EUR"
  },
  {
    "salesOrg":"SA20",
    "distributionChannel":"DO",
    "division":"RI",
    "lv1":"F1100",
    "lv1Text":"BRUCIATORI MEDIA POTENZA",
    "lv2":"G1100",
    "lv2Text":"MACISTE",
    "materialCode":"20044298",
    "materialDescription":"POMPA CALORE EKO T 0152 HCR",
    "kit":"",
    "component":"",
    "componentDescription":"",
    "quantity":"",
    "image":"F1270G1284",
    "price":"2432",
    "currency":"EUR"
  },
  {
    "salesOrg":"SA20",
    "distributionChannel":"DO",
    "division":"RI",
    "lv1":"F1100",
    "lv1Text":"BRUCIATORI MEDIA POTENZA",
    "lv2":"G1100",
    "lv2Text":"MACISTE",
    "materialCode":"20044299",
    "materialDescription":"POMPA CALORE EKO T 0202 HCR",
    "kit":"",
    "component":"",
    "componentDescription":"",
    "quantity":"",
    "image":"F1270G1284",
    "price":"1985",
    "currency":"EUR"
  },
  {
    "salesOrg":"SA20",
    "distributionChannel":"DO",
    "division":"RI",
    "lv1":"F1100",
    "lv1Text":"BRUCIATORI MEDIA POTENZA",
    "lv2":"G1100",
    "lv2Text":"MACISTE",
    "materialCode":"20044300",
    "materialDescription":"POMPA CALORE EKO T 0262 HCR",
    "kit":"",
    "component":"",
    "componentDescription":"",
    "quantity":"",
    "image":"F1270G1284",
    "price":"2110",
    "currency":"EUR"
  },
  {
    "salesOrg":"SA20",
    "distributionChannel":"DO",
    "division":"RI",
    "lv1":"F1100",
    "lv1Text":"BRUCIATORI MEDIA POTENZA",
    "lv2":"G1100",
    "lv2Text":"MACISTE",
    "materialCode":"20044301",
    "materialDescription":"POMPA CALORE EKO T 0302 HCR",
    "kit":"",
    "component":"",
    "componentDescription":"",
    "quantity":"",
    "image":"F1270G1284",
    "price":"2973",
    "currency":"EUR"
  },
  {
    "salesOrg":"SA20",
    "distributionChannel":"DO",
    "division":"RI",
    "lv1":"F1100",
    "lv1Text":"BRUCIATORI MEDIA POTENZA",
    "lv2":"G1100",
    "lv2Text":"MACISTE",
    "materialCode":"20044314",
    "materialDescription":"POMPA CALORE EKO T 0122 HC.S",
    "kit":"",
    "component":"",
    "componentDescription":"",
    "quantity":"",
    "image":"F1270G1284",
    "price":"2730",
    "currency":"EUR"
  },
  {
    "salesOrg":"SA20",
    "distributionChannel":"DO",
    "division":"RI",
    "lv1":"F1100",
    "lv1Text":"BRUCIATORI MEDIA POTENZA",
    "lv2":"G1100",
    "lv2Text":"MACISTE",
    "materialCode":"20044315",
    "materialDescription":"POMPA CALORE EKO T 0152 HC.S",
    "kit":"",
    "component":"",
    "componentDescription":"",
    "quantity":"",
    "image":"F1270G1284",
    "price":"3422",
    "currency":"EUR"
  },
  {
    "salesOrg":"SA20",
    "distributionChannel":"DO",
    "division":"RI",
    "lv1":"F1100",
    "lv1Text":"BRUCIATORI MEDIA POTENZA",
    "lv2":"G1100",
    "lv2Text":"MACISTE",
    "materialCode":"20044316",
    "materialDescription":"POMPA CALORE EKO T 0202 HC.S",
    "kit":"",
    "component":"",
    "componentDescription":"",
    "quantity":"",
    "image":"F1270G1284",
    "price":"2329",
    "currency":"EUR"
  },
  {
    "salesOrg":"SA20",
    "distributionChannel":"DO",
    "division":"RI",
    "lv1":"F1100",
    "lv1Text":"BRUCIATORI MEDIA POTENZA",
    "lv2":"G1100",
    "lv2Text":"MACISTE",
    "materialCode":"20044317",
    "materialDescription":"POMPA CALORE EKO T 0262 HC.S",
    "kit":"",
    "component":"",
    "componentDescription":"",
    "quantity":"",
    "image":"F1270G1284",
    "price":"2432",
    "currency":"EUR"
  },
  {
    "salesOrg":"SA20",
    "distributionChannel":"DO",
    "division":"RI",
    "lv1":"F1100",
    "lv1Text":"BRUCIATORI MEDIA POTENZA",
    "lv2":"G1100",
    "lv2Text":"MACISTE",
    "materialCode":"20044318",
    "materialDescription":"POMPA CALORE EKO T 0302 HC.S",
    "kit":"",
    "component":"",
    "componentDescription":"",
    "quantity":"",
    "image":"F1270G1284",
    "price":"3422",
    "currency":"EUR"
  },
  {
    "salesOrg":"SA20",
    "distributionChannel":"DO",
    "division":"RI",
    "lv1":"F1100",
    "lv1Text":"BRUCIATORI MEDIA POTENZA",
    "lv2":"G1100",
    "lv2Text":"MACISTE",
    "materialCode":"20044319",
    "materialDescription":"POMPA CALORE EKO T 0122 HCR.S",
    "kit":"",
    "component":"",
    "componentDescription":"",
    "quantity":"",
    "image":"F1270G1284",
    "price":"2329",
    "currency":"EUR"
  },
  {
    "salesOrg":"SA20",
    "distributionChannel":"DO",
    "division":"RI",
    "lv1":"F1100",
    "lv1Text":"BRUCIATORI MEDIA POTENZA",
    "lv2":"G1100",
    "lv2Text":"MACISTE",
    "materialCode":"20044320",
    "materialDescription":"POMPA CALORE EKO T 0152 HCR.S",
    "kit":"",
    "component":"",
    "componentDescription":"",
    "quantity":"",
    "image":"F1270G1284",
    "price":"2432",
    "currency":"EUR"
  },
  {
    "salesOrg":"SA20",
    "distributionChannel":"DO",
    "division":"RI",
    "lv1":"F1100",
    "lv1Text":"BRUCIATORI MEDIA POTENZA",
    "lv2":"G1100",
    "lv2Text":"MACISTE",
    "materialCode":"20044321",
    "materialDescription":"POMPA CALORE EKO T 0202 HCR.S",
    "kit":"",
    "component":"",
    "componentDescription":"",
    "quantity":"",
    "image":"F1270G1284",
    "price":"1985",
    "currency":"EUR"
  },
  {
    "salesOrg":"SA20",
    "distributionChannel":"DO",
    "division":"RI",
    "lv1":"F1100",
    "lv1Text":"BRUCIATORI MEDIA POTENZA",
    "lv2":"G1100",
    "lv2Text":"MACISTE",
    "materialCode":"20044322",
    "materialDescription":"POMPA CALORE EKO T 0262 HCR.S",
    "kit":"",
    "component":"",
    "componentDescription":"",
    "quantity":"",
    "image":"F1270G1284",
    "price":"2110",
    "currency":"EUR"
  },
  {
    "salesOrg":"SA20",
    "distributionChannel":"DO",
    "division":"RI",
    "lv1":"F1100",
    "lv1Text":"BRUCIATORI MEDIA POTENZA",
    "lv2":"G1100",
    "lv2Text":"MACISTE",
    "materialCode":"20044323",
    "materialDescription":"POMPA CALORE EKO T 0302 HCR.S",
    "kit":"",
    "component":"",
    "componentDescription":"",
    "quantity":"",
    "image":"F1270G1284",
    "price":"3422",
    "currency":"EUR"
  },
  {
    "salesOrg":"SA10",
    "distributionChannel":"DO",
    "division":"BR",
    "lv1":"F0003",
    "lv1Text":"SCALDABAGNI ISTANTANEI",
    "lv2":"G0165",
    "lv2Text":"IDRABAGNO STAGNO",
    "materialCode":"1100173",
    "materialDescription":"IDRABAGNO 13 ESI (MTN)",
    "kit":"",
    "component":"",
    "componentDescription":"",
    "quantity":"",
    "image":"F0003G0165",
    "price":"330",
    "currency":"EUR"
  },
  {
    "salesOrg":"SA10",
    "distributionChannel":"DO",
    "division":"BR",
    "lv1":"F0003",
    "lv1Text":"SCALDABAGNI ISTANTANEI",
    "lv2":"G0164",
    "lv2Text":"IDRABAGNO / FONTE",
    "materialCode":"20084536",
    "materialDescription":"SCALDABAGNO ISTANTANEO  FONTE 6 AE GPL",
    "kit":"",
    "component":"",
    "componentDescription":"",
    "quantity":"",
    "image":"F0003G0164",
    "price":"330",
    "currency":"EUR"
  },
  {
    "salesOrg":"SA10",
    "distributionChannel":"DO",
    "division":"BR",
    "lv1":"F0003",
    "lv1Text":"SCALDABAGNI ISTANTANEI",
    "lv2":"G0164",
    "lv2Text":"IDRABAGNO / FONTE",
    "materialCode":"20084539",
    "materialDescription":"SCALDABAGNO ISTANTANEO  FONTE 11 AE MTN",
    "kit":"",
    "component":"",
    "componentDescription":"",
    "quantity":"",
    "image":"F0003G0164",
    "price":"280",
    "currency":"EUR"
  },
  {
    "salesOrg":"SA10",
    "distributionChannel":"DO",
    "division":"BR",
    "lv1":"F0003",
    "lv1Text":"SCALDABAGNI ISTANTANEI",
    "lv2":"G0164",
    "lv2Text":"IDRABAGNO / FONTE",
    "materialCode":"20084540",
    "materialDescription":"SCALDABAGNO ISTANTANEO  FONTE 11 AE GPL",
    "kit":"",
    "component":"",
    "componentDescription":"",
    "quantity":"",
    "image":"F0003G0164",
    "price":"280",
    "currency":"EUR"
  },
  {
    "salesOrg":"SA10",
    "distributionChannel":"DO",
    "division":"BR",
    "lv1":"F0001",
    "lv1Text":"CALDAIE MURALI",
    "lv2":"G0270",
    "lv2Text":"CIAO GREEN",
    "materialCode":"20095435",
    "materialDescription":"CALDAIA CIAO GREEN 29 C.S.I. MTN",
    "kit":"",
    "component":"",
    "componentDescription":"",
    "quantity":"",
    "image":"F0001G0270",
    "price":"1880",
    "currency":"EUR"
  },
  {
    "salesOrg":"SA10",
    "distributionChannel":"DO",
    "division":"BR",
    "lv1":"F0001",
    "lv1Text":"CALDAIE MURALI",
    "lv2":"G0294",
    "lv2Text":"MYNUTE SINTHESI",
    "materialCode":"20096474",
    "materialDescription":"CALDAIA MYNUTE GREEN E 25 CSI MTN",
    "kit":"",
    "component":"",
    "componentDescription":"",
    "quantity":"",
    "image":"F0001G0294",
    "price":"1770",
    "currency":"EUR"
  },
  {
    "salesOrg":"SA10",
    "distributionChannel":"DO",
    "division":"BR",
    "lv1":"F0001",
    "lv1Text":"CALDAIE MURALI",
    "lv2":"G0294",
    "lv2Text":"MYNUTE SINTHESI",
    "materialCode":"20096475",
    "materialDescription":"CALDAIA MYNUTE GREEN E 30 CSI MTN",
    "kit":"",
    "component":"",
    "componentDescription":"",
    "quantity":"",
    "image":"F0001G0294",
    "price":"1745",
    "currency":"EUR"
  },
  {
    "salesOrg":"SA10",
    "distributionChannel":"DO",
    "division":"BR",
    "lv1":"F0001",
    "lv1Text":"CALDAIE MURALI",
    "lv2":"G0294",
    "lv2Text":"MYNUTE SINTHESI",
    "materialCode":"20096645",
    "materialDescription":"CALDAIA RAIN GREEN E 25 RSI MTN",
    "kit":"",
    "component":"",
    "componentDescription":"",
    "quantity":"",
    "image":"F0001G0294",
    "price":"2135",
    "currency":"EUR"
  },
  {
    "salesOrg":"SA10",
    "distributionChannel":"DO",
    "division":"BR",
    "lv1":"F0001",
    "lv1Text":"CALDAIE MURALI",
    "lv2":"G0294",
    "lv2Text":"MYNUTE SINTHESI",
    "materialCode":"20103133",
    "materialDescription":"CALDAIA MYNUTE SINTHESI 25 CSI MTN",
    "kit":"",
    "component":"",
    "componentDescription":"",
    "quantity":"",
    "image":"F0001G0294",
    "price":"2065",
    "currency":"EUR"
  },
  {
    "salesOrg":"SA20",
    "distributionChannel":"DO",
    "division":"TH",
    "lv1":"F1060",
    "lv1Text":"BASAMENTO RES STD SOFFIATO",
    "lv2":"G1060",
    "lv2Text":"BINOMIO (UNIT 4500)",
    "materialCode":"501103270",
    "materialDescription":"Gt AQUAEARLY - OIL (IT-FR-ES-PT) THERMIT",
    "kit":"",
    "component":"",
    "componentDescription":"",
    "quantity":"",
    "image":"F1060G1060",
    "price":"765",
    "currency":"EUR"
  },
  {
    "salesOrg":"SA20",
    "distributionChannel":"DO",
    "division":"TH",
    "lv1":"F1060",
    "lv1Text":"BASAMENTO RES STD SOFFIATO",
    "lv2":"G1060",
    "lv2Text":"BINOMIO (UNIT 4500)",
    "materialCode":"501143270",
    "materialDescription":"AQUAEARLY ISC - OIL",
    "kit":"",
    "component":"",
    "componentDescription":"",
    "quantity":"",
    "image":"F1060G1060",
    "price":"688",
    "currency":"EUR"
  },
  {
    "salesOrg":"SA20",
    "distributionChannel":"DO",
    "division":"TH",
    "lv1":"F1410",
    "lv1Text":"SOTTOSTAZIONI E MODULI UTENZA",
    "lv2":"G1416",
    "lv2Text":"ACCESSORI THE/FLAT",
    "materialCode":"3502174",
    "materialDescription":"Gruppo comp. KIT CONTABILIZZAZIONE",
    "kit":"",
    "component":"",
    "componentDescription":"",
    "quantity":"",
    "image":"F1410G1416",
    "price":"96",
    "currency":"EUR"
  },
  {
    "salesOrg":"SA20",
    "distributionChannel":"DO",
    "division":"TH",
    "lv1":"F1410",
    "lv1Text":"SOTTOSTAZIONI E MODULI UTENZA",
    "lv2":"G1416",
    "lv2Text":"ACCESSORI THE/FLAT",
    "materialCode":"3504257",
    "materialDescription":"KIT ESTERNO THE/FLAT 1",
    "kit":"",
    "component":"",
    "componentDescription":"",
    "quantity":"",
    "image":"F1410G1416",
    "price":"16",
    "currency":"EUR"
  },
  {
    "salesOrg":"SA20",
    "distributionChannel":"DO",
    "division":"TH",
    "lv1":"F1410",
    "lv1Text":"SOTTOSTAZIONI E MODULI UTENZA",
    "lv2":"G1416",
    "lv2Text":"ACCESSORI THE/FLAT",
    "materialCode":"3504258",
    "materialDescription":"KIT INCASSO THE/FLAT 1",
    "kit":"",
    "component":"",
    "componentDescription":"",
    "quantity":"",
    "image":"F1410G1416",
    "price":"30",
    "currency":"EUR"
  },
  {
    "salesOrg":"SA20",
    "distributionChannel":"DO",
    "division":"TH",
    "lv1":"F1410",
    "lv1Text":"SOTTOSTAZIONI E MODULI UTENZA",
    "lv2":"G1416",
    "lv2Text":"ACCESSORI THE/FLAT",
    "materialCode":"3902600",
    "materialDescription":"KIT INCASSO THE/FLAT 1",
    "kit":"",
    "component":"",
    "componentDescription":"",
    "quantity":"",
    "image":"F1410G1416",
    "price":"18",
    "currency":"EUR"
  },
  {
    "salesOrg":"SA20",
    "distributionChannel":"DO",
    "division":"TH",
    "lv1":"F1410",
    "lv1Text":"SOTTOSTAZIONI E MODULI UTENZA",
    "lv2":"G1416",
    "lv2Text":"ACCESSORI THE/FLAT",
    "materialCode":"3902601",
    "materialDescription":"KIT ESTERNO THE/FLAT 1",
    "kit":"",
    "component":"",
    "componentDescription":"",
    "quantity":"",
    "image":"F1410G1416",
    "price":"25",
    "currency":"EUR"
  },
  {
    "salesOrg":"SA20",
    "distributionChannel":"DO",
    "division":"TH",
    "lv1":"F1410",
    "lv1Text":"SOTTOSTAZIONI E MODULI UTENZA",
    "lv2":"G1416",
    "lv2Text":"ACCESSORI THE/FLAT",
    "materialCode":"3902602",
    "materialDescription":"KIT INCASSO THE/FLAT 2",
    "kit":"",
    "component":"",
    "componentDescription":"",
    "quantity":"",
    "image":"F1410G1416",
    "price":"22",
    "currency":"EUR"
  },
  {
    "salesOrg":"SA20",
    "distributionChannel":"DO",
    "division":"TH",
    "lv1":"F1410",
    "lv1Text":"SOTTOSTAZIONI E MODULI UTENZA",
    "lv2":"G1416",
    "lv2Text":"ACCESSORI THE/FLAT",
    "materialCode":"3902603",
    "materialDescription":"KIT ESTERNO THE/FLAT 2",
    "kit":"",
    "component":"",
    "componentDescription":"",
    "quantity":"",
    "image":"F1410G1416",
    "price":"34",
    "currency":"EUR"
  },
  {
    "salesOrg":"SA20",
    "distributionChannel":"DO",
    "division":"TH",
    "lv1":"F1410",
    "lv1Text":"SOTTOSTAZIONI E MODULI UTENZA",
    "lv2":"G1416",
    "lv2Text":"ACCESSORI THE/FLAT",
    "materialCode":"3902604",
    "materialDescription":"KIT INCASSO THE/FLAT 3",
    "kit":"",
    "component":"",
    "componentDescription":"",
    "quantity":"",
    "image":"F1410G1416",
    "price":"15",
    "currency":"EUR"
  },
  {
    "salesOrg":"SA20",
    "distributionChannel":"DO",
    "division":"TH",
    "lv1":"F1410",
    "lv1Text":"SOTTOSTAZIONI E MODULI UTENZA",
    "lv2":"G1416",
    "lv2Text":"ACCESSORI THE/FLAT",
    "materialCode":"3902605",
    "materialDescription":"KIT ESTERNO THE/FLAT 3",
    "kit":"",
    "component":"",
    "componentDescription":"",
    "quantity":"",
    "image":"F1410G1416",
    "price":"52",
    "currency":"EUR"
  },
  {
    "salesOrg":"SA20",
    "distributionChannel":"DO",
    "division":"TH",
    "lv1":"F1410",
    "lv1Text":"SOTTOSTAZIONI E MODULI UTENZA",
    "lv2":"G1416",
    "lv2Text":"ACCESSORI THE/FLAT",
    "materialCode":"3902606",
    "materialDescription":"KIT INCASSO THE/FLAT 4",
    "kit":"",
    "component":"",
    "componentDescription":"",
    "quantity":"",
    "image":"F1410G1416",
    "price":"44",
    "currency":"EUR"
  },
  {
    "salesOrg":"SA20",
    "distributionChannel":"DO",
    "division":"TH",
    "lv1":"F1410",
    "lv1Text":"SOTTOSTAZIONI E MODULI UTENZA",
    "lv2":"G1416",
    "lv2Text":"ACCESSORI THE/FLAT",
    "materialCode":"3902607",
    "materialDescription":"KIT ESTERNO THE/FLAT 4",
    "kit":"",
    "component":"",
    "componentDescription":"",
    "quantity":"",
    "image":"F1410G1416",
    "price":"27",
    "currency":"EUR"
  },
  {
    "salesOrg":"SA20",
    "distributionChannel":"DO",
    "division":"TH",
    "lv1":"F1410",
    "lv1Text":"SOTTOSTAZIONI E MODULI UTENZA",
    "lv2":"G1416",
    "lv2Text":"ACCESSORI THE/FLAT",
    "materialCode":"99372",
    "materialDescription":"LIMITATORE TEMPERATURA DI RITORNO",
    "kit":"",
    "component":"",
    "componentDescription":"",
    "quantity":"",
    "image":"F1410G1416",
    "price":"63",
    "currency":"EUR"
  },
  {
    "salesOrg":"SA20",
    "distributionChannel":"DO",
    "division":"TH",
    "lv1":"F1410",
    "lv1Text":"SOTTOSTAZIONI E MODULI UTENZA",
    "lv2":"G1416",
    "lv2Text":"ACCESSORI THE/FLAT",
    "materialCode":"20012766",
    "materialDescription":"ACC. PORTA ESTERNA FLAT AB",
    "kit":"",
    "component":"",
    "componentDescription":"",
    "quantity":"",
    "image":"F1410G1416",
    "price":"44",
    "currency":"EUR"
  },
  {
    "salesOrg":"SA20",
    "distributionChannel":"DO",
    "division":"TH",
    "lv1":"F1410",
    "lv1Text":"SOTTOSTAZIONI E MODULI UTENZA",
    "lv2":"G1416",
    "lv2Text":"ACCESSORI THE/FLAT",
    "materialCode":"20012767",
    "materialDescription":"ACC. PORTA ESTERNA FLAT CBB",
    "kit":"",
    "component":"",
    "componentDescription":"",
    "quantity":"",
    "image":"F1410G1416",
    "price":"18",
    "currency":"EUR"
  },
  {
    "salesOrg":"SA20",
    "distributionChannel":"DO",
    "division":"TH",
    "lv1":"F1410",
    "lv1Text":"SOTTOSTAZIONI E MODULI UTENZA",
    "lv2":"G1416",
    "lv2Text":"ACCESSORI THE/FLAT",
    "materialCode":"20012768",
    "materialDescription":"ACC. VALVOLA BILANCIAM. ASV-PV PLUS 15",
    "kit":"",
    "component":"",
    "componentDescription":"",
    "quantity":"",
    "image":"F1410G1416",
    "price":"38",
    "currency":"EUR"
  },
  {
    "salesOrg":"SA20",
    "distributionChannel":"DO",
    "division":"TH",
    "lv1":"F1410",
    "lv1Text":"SOTTOSTAZIONI E MODULI UTENZA",
    "lv2":"G1416",
    "lv2Text":"ACCESSORI THE/FLAT",
    "materialCode":"20012769",
    "materialDescription":"ACC. VALVOLA BILANCIAM. ASV-PV PLUS 20",
    "kit":"",
    "component":"",
    "componentDescription":"",
    "quantity":"",
    "image":"F1410G1416",
    "price":"37",
    "currency":"EUR"
  },
  {
    "salesOrg":"SA20",
    "distributionChannel":"DO",
    "division":"TH",
    "lv1":"F1410",
    "lv1Text":"SOTTOSTAZIONI E MODULI UTENZA",
    "lv2":"G1416",
    "lv2Text":"ACCESSORI THE/FLAT",
    "materialCode":"20012770",
    "materialDescription":"ACC. VALVOLA BILANCIAM. ASV-PV PLUS 25",
    "kit":"",
    "component":"",
    "componentDescription":"",
    "quantity":"",
    "image":"F1410G1416",
    "price":"36",
    "currency":"EUR"
  },
  {
    "salesOrg":"SA20",
    "distributionChannel":"DO",
    "division":"TH",
    "lv1":"F1410",
    "lv1Text":"SOTTOSTAZIONI E MODULI UTENZA",
    "lv2":"G1416",
    "lv2Text":"ACCESSORI THE/FLAT",
    "materialCode":"20012771",
    "materialDescription":"ACC. VALVOLA BILANCIAM. ASV-PV PLUS 32",
    "kit":"",
    "component":"",
    "componentDescription":"",
    "quantity":"",
    "image":"F1410G1416",
    "price":"35",
    "currency":"EUR"
  },
  {
    "salesOrg":"SA40",
    "distributionChannel":"DO",
    "division":"RI",
    "lv1":"F4010",
    "lv1Text":"RICAMBI HEATING DIV",
    "lv2":"G4010",
    "lv2Text":"WALL-HUNG BOILERS",
    "materialCode":"0CR102079",
    "materialDescription":"Tubo",
    "kit":"",
    "component":"",
    "componentDescription":"",
    "quantity":"",
    "image":"F4010G4010",
    "price":"132",
    "currency":"EUR"
  },
  {
    "salesOrg":"SA40",
    "distributionChannel":"DO",
    "division":"RI",
    "lv1":"F4010",
    "lv1Text":"RICAMBI HEATING DIV",
    "lv2":"G4010",
    "lv2Text":"WALL-HUNG BOILERS",
    "materialCode":"0CR103277",
    "materialDescription":"Piolino Cz.10",
    "kit":"",
    "component":"",
    "componentDescription":"",
    "quantity":"",
    "image":"F4010G4010",
    "price":"80",
    "currency":"EUR"
  },
  {
    "salesOrg":"SA40",
    "distributionChannel":"DO",
    "division":"RI",
    "lv1":"F4010",
    "lv1Text":"RICAMBI HEATING DIV",
    "lv2":"G4010",
    "lv2Text":"WALL-HUNG BOILERS",
    "materialCode":"0CR104664",
    "materialDescription":"Bollitore",
    "kit":"",
    "component":"",
    "componentDescription":"",
    "quantity":"",
    "image":"F4010G4010",
    "price":"89",
    "currency":"EUR"
  },
  {
    "salesOrg":"SA40",
    "distributionChannel":"DO",
    "division":"RI",
    "lv1":"F4010",
    "lv1Text":"RICAMBI HEATING DIV",
    "lv2":"G4010",
    "lv2Text":"WALL-HUNG BOILERS",
    "materialCode":"0CR104665",
    "materialDescription":"Coperchio",
    "kit":"",
    "component":"",
    "componentDescription":"",
    "quantity":"",
    "image":"F4010G4010",
    "price":"115",
    "currency":"EUR"
  },
  {
    "salesOrg":"SA40",
    "distributionChannel":"DO",
    "division":"RI",
    "lv1":"F4010",
    "lv1Text":"RICAMBI HEATING DIV",
    "lv2":"G4010",
    "lv2Text":"WALL-HUNG BOILERS",
    "materialCode":"0CR104698",
    "materialDescription":"Tubo",
    "kit":"",
    "component":"",
    "componentDescription":"",
    "quantity":"",
    "image":"F4010G4010",
    "price":"113",
    "currency":"EUR"
  },
  {
    "salesOrg":"SA40",
    "distributionChannel":"DO",
    "division":"RI",
    "lv1":"F4010",
    "lv1Text":"RICAMBI HEATING DIV",
    "lv2":"G4010",
    "lv2Text":"WALL-HUNG BOILERS",
    "materialCode":"0CR104699",
    "materialDescription":"Pannello laterale",
    "kit":"",
    "component":"",
    "componentDescription":"",
    "quantity":"",
    "image":"F4010G4010",
    "price":"79",
    "currency":"EUR"
  },
  {
    "salesOrg":"SA40",
    "distributionChannel":"DO",
    "division":"RI",
    "lv1":"F4010",
    "lv1Text":"RICAMBI HEATING DIV",
    "lv2":"G4010",
    "lv2Text":"WALL-HUNG BOILERS",
    "materialCode":"0CR104700",
    "materialDescription":"Pannello laterale",
    "kit":"",
    "component":"",
    "componentDescription":"",
    "quantity":"",
    "image":"F4010G4010",
    "price":"85",
    "currency":"EUR"
  },
  {
    "salesOrg":"SA40",
    "distributionChannel":"DO",
    "division":"RI",
    "lv1":"F4010",
    "lv1Text":"RICAMBI HEATING DIV",
    "lv2":"G4010",
    "lv2Text":"WALL-HUNG BOILERS",
    "materialCode":"0CR104701",
    "materialDescription":"Pannello tamponamento",
    "kit":"",
    "component":"",
    "componentDescription":"",
    "quantity":"",
    "image":"F4010G4010",
    "price":"36",
    "currency":"EUR"
  },
  {
    "salesOrg":"SA40",
    "distributionChannel":"DO",
    "division":"RI",
    "lv1":"F4010",
    "lv1Text":"RICAMBI HEATING DIV",
    "lv2":"G4011",
    "lv2Text":"WATER-HEATERS",
    "materialCode":"0BB81600",
    "materialDescription":"Telaio",
    "kit":"",
    "component":"",
    "componentDescription":"",
    "quantity":"",
    "image":"F4010G4011",
    "price":"38",
    "currency":"EUR"
  },
  {
    "salesOrg":"SA40",
    "distributionChannel":"DO",
    "division":"RI",
    "lv1":"F4010",
    "lv1Text":"RICAMBI HEATING DIV",
    "lv2":"G4011",
    "lv2Text":"WATER-HEATERS",
    "materialCode":"0BB81601",
    "materialDescription":"Cappa",
    "kit":"",
    "component":"",
    "componentDescription":"",
    "quantity":"",
    "image":"F4010G4011",
    "price":"37",
    "currency":"EUR"
  },
  {
    "salesOrg":"SA40",
    "distributionChannel":"DO",
    "division":"RI",
    "lv1":"F4010",
    "lv1Text":"RICAMBI HEATING DIV",
    "lv2":"G4011",
    "lv2Text":"WATER-HEATERS",
    "materialCode":"0BB81602",
    "materialDescription":"Scambiatore",
    "kit":"",
    "component":"",
    "componentDescription":"",
    "quantity":"",
    "image":"F4010G4011",
    "price":"36",
    "currency":"EUR"
  },
  {
    "salesOrg":"SA40",
    "distributionChannel":"DO",
    "division":"RI",
    "lv1":"F4010",
    "lv1Text":"RICAMBI HEATING DIV",
    "lv2":"G4011",
    "lv2Text":"WATER-HEATERS",
    "materialCode":"0BB81603",
    "materialDescription":"Piezo",
    "kit":"",
    "component":"",
    "componentDescription":"",
    "quantity":"",
    "image":"F4010G4011",
    "price":"35",
    "currency":"EUR"
  },
  {
    "salesOrg":"SA40",
    "distributionChannel":"DO",
    "division":"RI",
    "lv1":"F4010",
    "lv1Text":"RICAMBI HEATING DIV",
    "lv2":"G4011",
    "lv2Text":"WATER-HEATERS",
    "materialCode":"0BB81604",
    "materialDescription":"Termostato",
    "kit":"",
    "component":"",
    "componentDescription":"",
    "quantity":"",
    "image":"F4010G4011",
    "price":"132",
    "currency":"EUR"
  },
  {
    "salesOrg":"SA40",
    "distributionChannel":"DO",
    "division":"RI",
    "lv1":"F4010",
    "lv1Text":"RICAMBI HEATING DIV",
    "lv2":"G4011",
    "lv2Text":"WATER-HEATERS",
    "materialCode":"0BB81605",
    "materialDescription":"Termostato fumi",
    "kit":"",
    "component":"",
    "componentDescription":"",
    "quantity":"",
    "image":"F4010G4011",
    "price":"80",
    "currency":"EUR"
  },
  {
    "salesOrg":"SA40",
    "distributionChannel":"DO",
    "division":"RI",
    "lv1":"F4010",
    "lv1Text":"RICAMBI HEATING DIV",
    "lv2":"G4011",
    "lv2Text":"WATER-HEATERS",
    "materialCode":"0BB81606",
    "materialDescription":"Cavo",
    "kit":"",
    "component":"",
    "componentDescription":"",
    "quantity":"",
    "image":"F4010G4011",
    "price":"89",
    "currency":"EUR"
  },
  {
    "salesOrg":"SA40",
    "distributionChannel":"DO",
    "division":"RI",
    "lv1":"F4010",
    "lv1Text":"RICAMBI HEATING DIV",
    "lv2":"G4011",
    "lv2Text":"WATER-HEATERS",
    "materialCode":"0BB81607",
    "materialDescription":"Maschera",
    "kit":"",
    "component":"",
    "componentDescription":"",
    "quantity":"",
    "image":"F4010G4011",
    "price":"115",
    "currency":"EUR"
  },
  {
    "salesOrg":"SA40",
    "distributionChannel":"DO",
    "division":"RI",
    "lv1":"F4010",
    "lv1Text":"RICAMBI HEATING DIV",
    "lv2":"G4011",
    "lv2Text":"WATER-HEATERS",
    "materialCode":"0BB81608",
    "materialDescription":"Manopola  CZ. 2",
    "kit":"",
    "component":"",
    "componentDescription":"",
    "quantity":"",
    "image":"F4010G4011",
    "price":"113",
    "currency":"EUR"
  },
  {
    "salesOrg":"SA40",
    "distributionChannel":"DO",
    "division":"RI",
    "lv1":"F4010",
    "lv1Text":"RICAMBI HEATING DIV",
    "lv2":"G4011",
    "lv2Text":"WATER-HEATERS",
    "materialCode":"0BB81609",
    "materialDescription":"Rampa",
    "kit":"",
    "component":"",
    "componentDescription":"",
    "quantity":"",
    "image":"F4010G4011",
    "price":"79",
    "currency":"EUR"
  },
  {
    "salesOrg":"SA40",
    "distributionChannel":"DO",
    "division":"RI",
    "lv1":"F4010",
    "lv1Text":"RICAMBI HEATING DIV",
    "lv2":"G4011",
    "lv2Text":"WATER-HEATERS",
    "materialCode":"0BB81610",
    "materialDescription":"Bruciatore pilota",
    "kit":"",
    "component":"",
    "componentDescription":"",
    "quantity":"",
    "image":"F4010G4011",
    "price":"85",
    "currency":"EUR"
  },
  {
    "salesOrg":"SA40",
    "distributionChannel":"DO",
    "division":"RI",
    "lv1":"F4010",
    "lv1Text":"RICAMBI HEATING DIV",
    "lv2":"G4011",
    "lv2Text":"WATER-HEATERS",
    "materialCode":"0BB81611",
    "materialDescription":"Termocoppia",
    "kit":"",
    "component":"",
    "componentDescription":"",
    "quantity":"",
    "image":"F4010G4011",
    "price":"36",
    "currency":"EUR"
  },
  {
    "salesOrg":"SA40",
    "distributionChannel":"DO",
    "division":"RI",
    "lv1":"F4010",
    "lv1Text":"RICAMBI HEATING DIV",
    "lv2":"G4011",
    "lv2Text":"WATER-HEATERS",
    "materialCode":"0BB81612",
    "materialDescription":"Candela accensione fiamma",
    "kit":"",
    "component":"",
    "componentDescription":"",
    "quantity":"",
    "image":"F4010G4011",
    "price":"55",
    "currency":"EUR"
  }
]
