[{
		"productId": "F1130",
		"description": "PRODUCTS FAMILY 1",
		"distrCh": "RI",
		"division": "DO",
		"salesOrg": "SA20",
        "level":1,
		"items": [{
			"productId": "G114D",
			"description": "PRODUCTS FAMILY 1 - CATEGORY 1",
			"distrCh": "DO",
			"division": "RI",
			"salesOrg": "SA20",
            "productPicUrl": "",
            "level":2
		}]
	},
    {
		"productId": "F1210",
		"description": "PRODUCTS FAMILY 2",
		"distrCh": "DO",
		"division": "RI",
		"salesOrg": "SA20",
        "level":1,
		"items": [{
			"productId": "G1215",
			"description": "PRODUCTS FAMILY 2 - CATEGORY 1",
			"distrCh": "DO",
			"division": "RI",
			"salesOrg": "SA20",
            "productPicUrl": "",
            "level":2
		    }, 
            {
			"productId": "G1238",
			"description": "PRODUCTS FAMILY 2 - CATEGORY 2",
			"distrCh": "DO",
			"division": "RI",
			"salesOrg": "SA20",
            "productPicUrl": "",
            "level":2
		}]
	}, 
    {
		"productId": "F1440",
		"description": "PRODUCTS FAMILY 3",
		"distrCh": "DO",
		"division": "RI",
		"salesOrg": "SA20",
        "level":1,
		"items": [{
			"productId": "G1440",
			"description": "PRODUCTS FAMILY 3 - CATEGORY 1",
			"distrCh": "DO",
			"division": "RI",
			"salesOrg": "SA20",
            "productPicUrl": "",
            "level":2
		}]
	},
    {
		"productId": "F1100",
		"description": "PRODUCTS FAMILY 4",
		"distrCh": "DO",
		"division": "RI",
		"salesOrg": "SA20",
        "level":1,
		"items": [{
			"productId": "G1100",
			"description": "PRODUCTS FAMILY 4 - CATEGORY 1",
			"distrCh": "DO",
			"division": "RI",
            "salesOrg": "SA20",
            "productPicUrl": "",
            "level":2
		}]
	},
    {
		"productId": "F0003",
		"description": "PRODUCTS FAMILY 5",
		"distrCh": "DO",
		"division": "BR",
		"salesOrg": "SA20",
        "level":1,
		"items": [{
			"productId": "G0165",
			"description": "PRODUCTS FAMILY 5 - CATEGORY 1",
			"distrCh": "DO",
			"division": "BR",
            "salesOrg": "SA20",
            "productPicUrl": "",
            "level":2
		},{
			"productId": "G0164",
			"description": "PRODUCTS FAMILY 5 - CATEGORY 2",
			"distrCh": "DO",
			"division": "BR",
            "salesOrg": "SA20",
            "productPicUrl": "",
            "level":2
		}]
	}, 
    {
		"productId": "F0001",
		"description": "PRODUCTS FAMILY 6",
		"distrCh": "DO",
		"division": "BR",
		"salesOrg": "SA20",
        "level":1,
		"items": [{
			"productId": "G0270",
			"description": "PRODUCTS FAMILY 6 - CATEGORY 1",
			"distrCh": "DO",
			"division": "BR",
            "salesOrg": "SA20",
            "productPicUrl": "",
            "level":2
		},{
			"productId": "G0294",
			"description": "PRODUCTS FAMILY 6 - CATEGORY 2",
			"distrCh": "DO",
			"division": "BR",
            "salesOrg": "SA20",
            "productPicUrl": "",
            "level":2
		}]
	}, 
    {
		"productId": "F4010",
		"description": "PRODUCTS FAMILY 7",
		"distrCh": "DO",
		"division": "RI",
		"salesOrg": "SA40",
        "level":1,
		"items": [{
			"productId": "G4010",
			"description": "PRODUCTS FAMILY 7 - CATEGORY 1",
			"distrCh": "DO",
			"division": "RI",
			"salesOrg": "SA40",
            "productPicUrl": "",
            "level":2
		}, 
        {
			"productId": "G4011",
			"description": "PRODUCTS FAMILY 7 - CATEGORY 2",
			"distrCh": "DO",
			"division": "RI",
			"salesOrg": "SA40",
            "productPicUrl": "",
            "level":2
		}]
	}

]
