[
{
    "productId": "20020052",
    "scale": "PZ",
    "description": "RESIDENCE CONDENS 20 KIS MTN",
    "unitListPrice": "1113.12",
    "productPicUrl": "./custom/img/F1210G1215.jpg" 
    
  },
  {
    "productId": "20020056",
    "scale": "PZ",
    "description": "RESIDENCE CONDENS 20 IS MTN",
    "unitListPrice": "1614.86",
    "productPicUrl": "./custom/img/F1210G1215.jpg" 
  },
  {
    "productId": "20108141",
    "scale": "PZ",
    "description": "CALDAIA COROLLA 35 S ERP MTN",
    "unitListPrice": "1614.86",
    "productPicUrl": "./custom/img/F1210G1238.jpg" 
  },
  {
    "productId": "20108143",
    "scale": "PZ",
    "description": "CALDAIA COROLLA 35 S ERP GPL",
    "unitListPrice": "276.76",
    "productPicUrl": "./custom/img/F1210G1238.jpg" 
  },
    {
    "productId": "20095435",
    "scale": "PZ",
    "description": "CALDAIA CIAO GREEN 29 C.S.I. MTN",
    "unitListPrice": "1880",
    "productPicUrl": "./custom/img/F0001G0294.jpg" 
  },
  
  {
    "productId": "1100173",
    "scale": "PZ",
    "description": "IDRABAGNO 13 ESI (MTN)",
    "unitListPrice": "330",
    "productPicUrl": "./custom/img/F0003G0165.jpg" 
  }
  ,
  {
    "productId": "20044296",
    "scale": "PZ",
    "description": "POMPA CALORE EKO T 0302 HC",
    "unitListPrice": "2730",
    "productPicUrl": "./custom/img/F1100G1100.jpg" 
  },
  {
    "productId": "4153210",
    "scale": "PZ",
    "description": "NUOVO TCV 45 VI",
    "unitListPrice": "1025",
    "productPicUrl": "./custom/img/F1440G1440.jpg" 
  },
  {
    "productId": "0CR104701",
    "scale": "PZ",
    "description": "Pannello tamponamento",
    "unitListPrice": "36",
    "productPicUrl": "./custom/img/F4010G4010.jpg" 
  }
]

[
  {
    "id": "20020052",
    "scale": "PZ",
    "name": "RESIDENCE CONDENS 20 KIS MTN",
    "unitListPrice": "1113.12",
    "parentId": "G1215"
  },
  {
    "id": "20020056",
    "scale": "PZ",
    "name": "RESIDENCE CONDENS 20 IS MTN",
    "unitListPrice": "1614.86",
    "parentId": "G1215"
  },
  {
    "id": "20108141",
    "scale": "PZ",
    "name": "CALDAIA COROLLA 35 S ERP MTN",
    "unitListPrice": "1614.86",
    "parentId": "G1238"
  },
  {
    "id": "20108143",
    "scale": "PZ",
    "name": "CALDAIA COROLLA 35 S ERP GPL",
    "unitListPrice": "276.76",
    "parentId": "G1238"
  }
]
